{
  "consumer": {
    "name": "evaluation-service"
  },
  "provider": {
    "name": "order-service"
  },
  "interactions": [
    {
      "description": "a request for a single order",
      "providerState": "i want to get one order",
      "request": {
        "method": "GET",
        "path": "/orders/04",
        "headers": {
          "Accept": "application/json"
        }
      },
      "response": {
        "status": 200,
        "headers": {
          "Content-Type": "application/json; charset=utf-8"
        },
        "body": {
          "id": "04",
          "restaurant": "7fy",
          "totalPrice": 51.25,
          "deliveryFee": 5.25,
          "deliveryType": 2,
          "minBasketSize": 5.1,
          "restaurantMinBasketSize": 10.1
        }
      }
    }
  ],
  "metadata": {
    "pactSpecification": {
      "version": "2.0.0"
    }
  }
}